<?xml version="1.0" standalone="no"?>
<!DOCTYPE svg PUBLIC "-//W3C//DTD SVG 1.1//EN" "http://www.w3.org/Graphics/SVG/1.1/DTD/svg11.dtd" >
<svg xmlns="http://www.w3.org/2000/svg">
<metadata>
<json>
<![CDATA[
{
	"fontFamily": "ico-app",
	"majorVersion": 1,
	"minorVersion": 0,
	"version": "Version 1.0",
	"fontId": "ico-app",
	"psName": "ico-app",
	"subFamily": "Regular",
	"fullName": "ico-app",
	"description": "Font generated by IcoMoon."
}
]]>
</json>
</metadata>
<defs>
<font id="ico-app" horiz-adv-x="1024">
<font-face units-per-em="1024" ascent="960" descent="-64" />
<missing-glyph horiz-adv-x="1024" />
<glyph unicode="&#x20;" horiz-adv-x="512" d="" />
<glyph unicode="&#xe901;" glyph-name="arrow_down" data-tags="arrow_down" d="M146.285 739.229l365.715-364.037 365.715 364.037 146.285-72.807-512-509.651-512 509.651 146.285 72.807z" />
<glyph unicode="&#xe902;" glyph-name="burger-menu" data-tags="burger menu" d="M264 820c0-32.888-13.064-64.427-36.318-87.682s-54.795-36.318-87.682-36.318-64.427 13.064-87.682 36.318c-23.255 23.255-36.318 54.795-36.318 87.682s13.064 64.427 36.318 87.682c23.255 23.255 54.794 36.318 87.682 36.318s64.427-13.064 87.682-36.318c23.254-23.255 36.318-54.794 36.318-87.682v0zM264 448c0-32.888-13.064-64.427-36.318-87.682s-54.795-36.318-87.682-36.318-64.427 13.064-87.682 36.318c-23.255 23.255-36.318 54.794-36.318 87.682s13.064 64.427 36.318 87.682c23.255 23.254 54.794 36.318 87.682 36.318s64.427-13.064 87.682-36.318c23.254-23.255 36.318-54.794 36.318-87.682zM140-48c32.888 0 64.427 13.064 87.682 36.318s36.318 54.794 36.318 87.682-13.064 64.427-36.318 87.682c-23.255 23.254-54.795 36.318-87.682 36.318s-64.427-13.064-87.682-36.318c-23.255-23.255-36.318-54.794-36.318-87.682s13.064-64.427 36.318-87.682c23.255-23.254 54.794-36.318 87.682-36.318v0zM636 820c0-32.888-13.064-64.427-36.318-87.682s-54.794-36.318-87.682-36.318-64.427 13.064-87.682 36.318c-23.254 23.255-36.318 54.795-36.318 87.682s13.064 64.427 36.318 87.682c23.255 23.255 54.794 36.318 87.682 36.318s64.427-13.064 87.682-36.318c23.254-23.255 36.318-54.794 36.318-87.682v0zM512 324c32.888 0 64.427 13.064 87.682 36.318s36.318 54.794 36.318 87.682-13.064 64.427-36.318 87.682c-23.255 23.254-54.794 36.318-87.682 36.318s-64.427-13.064-87.682-36.318c-23.254-23.255-36.318-54.794-36.318-87.682s13.064-64.427 36.318-87.682c23.255-23.254 54.794-36.318 87.682-36.318zM636 76c0-32.888-13.064-64.427-36.318-87.682s-54.794-36.318-87.682-36.318-64.427 13.064-87.682 36.318c-23.254 23.255-36.318 54.794-36.318 87.682s13.064 64.427 36.318 87.682c23.255 23.254 54.794 36.318 87.682 36.318s64.427-13.064 87.682-36.318c23.254-23.255 36.318-54.794 36.318-87.682v0zM884 696c32.888 0 64.427 13.064 87.682 36.318s36.318 54.795 36.318 87.682-13.064 64.427-36.318 87.682c-23.255 23.255-54.794 36.318-87.682 36.318s-64.427-13.064-87.682-36.318c-23.254-23.255-36.318-54.794-36.318-87.682s13.064-64.427 36.318-87.682c23.255-23.254 54.794-36.318 87.682-36.318v0zM1008 448c0-32.888-13.064-64.427-36.318-87.682s-54.794-36.318-87.682-36.318-64.427 13.064-87.682 36.318c-23.254 23.255-36.318 54.794-36.318 87.682s13.064 64.427 36.318 87.682c23.255 23.254 54.794 36.318 87.682 36.318s64.427-13.064 87.682-36.318c23.254-23.255 36.318-54.794 36.318-87.682zM884-48c32.888 0 64.427 13.064 87.682 36.318s36.318 54.794 36.318 87.682-13.064 64.427-36.318 87.682c-23.255 23.254-54.794 36.318-87.682 36.318s-64.427-13.064-87.682-36.318c-23.254-23.255-36.318-54.794-36.318-87.682s13.064-64.427 36.318-87.682c23.255-23.254 54.794-36.318 87.682-36.318v0z" />
<glyph unicode="&#xe904;" glyph-name="calendar" data-tags="calendar" d="M420.809 545.085v-324.859h-19.484v295.041h-11.352l-2.056-1.341c-12.514-8.157-35.343-24.695-54.327-39.487v23.466c20.627 17.175 42.042 32.927 64.14 47.18h23.078zM653.067 389.762h-6.098l-1.795-5.829c-7.122-23.124-29.802-44.732-65.868-44.732-39.88 0-81.127 34.276-81.127 105.023 0 69.082 43.584 107.517 87.582 107.517 28.847 0 52.15-10.645 68.658-35.297 16.896-25.228 27.243-65.979 27.243-127.197 0-57.005-9.794-101.302-27.057-131.046-17.035-29.351-41.183-44.44-71.351-44.44-49.268 0-76.014 37.573-81.629 73.469h20.222c5.346-24.906 25.873-52.48 63.060-52.48 26.641 0 46.379 16.367 59.024 42.303 12.519 25.683 18.726 61.721 18.835 104.43l0.020 8.28h-9.718zM586.773 359.999c38.914 0 71.406 35.762 71.406 83.778 0 28.028-7.407 49.814-20.282 64.725-12.955 15.002-30.784 22.252-49.844 22.252-17.839 0-35.662-7.090-48.964-21.658-13.315-14.58-21.587-36.063-21.587-64.040 0-27.651 7.673-48.972 20.569-63.493 12.934-14.562 30.5-21.565 48.701-21.565zM138.666 704h746.667v-640c0-16.974-5.619-33.252-15.621-45.254s-23.567-18.746-37.713-18.746h-640c-14.145 0-27.71 6.744-37.712 18.746s-15.621 28.281-15.621 45.254v640zM192 896c-28.29 0-55.421-13.486-75.425-37.49s-31.242-56.562-31.242-90.51v-704c0-33.947 11.238-66.505 31.242-90.51s47.135-37.49 75.425-37.49h640c28.29 0 55.422 13.485 75.426 37.49s31.242 56.563 31.242 90.51v704c0 33.948-11.239 66.505-31.242 90.51s-47.135 37.49-75.426 37.49h-640zM272 960c7.072 0 13.855-3.371 18.856-9.373s7.81-14.14 7.81-22.627v-32c0-8.487-2.809-16.626-7.81-22.627s-11.784-9.373-18.856-9.373c-7.072 0-13.855 3.371-18.856 9.373s-7.81 14.14-7.81 22.627v32c0 8.487 2.81 16.626 7.81 22.627s11.784 9.373 18.856 9.373v0zM752 960c7.072 0 13.855-3.371 18.856-9.373s7.81-14.14 7.81-22.627v-32c0-8.487-2.809-16.626-7.81-22.627s-11.784-9.373-18.856-9.373c-7.072 0-13.855 3.371-18.856 9.373s-7.81 14.14-7.81 22.627v32c0 8.487 2.809 16.626 7.81 22.627s11.784 9.373 18.856 9.373v0z" />
<glyph unicode="&#xe905;" glyph-name="close" data-tags="close" d="M713.996 572.648c4.471 4.168 8.078 9.177 10.614 14.739s3.951 11.57 4.164 17.679c0.215 6.11-0.777 12.2-2.918 17.927s-5.387 10.975-9.556 15.446c-4.169 4.471-9.177 8.078-14.739 10.614-5.564 2.536-11.571 3.951-17.679 4.164-6.11 0.215-12.202-0.777-17.928-2.918s-10.975-5.388-15.446-9.556l-136.192-126.976-126.976 136.238c-8.496 8.702-20.061 13.733-32.219 14.017s-23.944-4.203-32.836-12.499-14.185-19.744-14.744-31.894c-0.561-12.148 3.657-24.033 11.75-33.113l126.976-136.192-136.239-126.976c-4.629-4.125-8.387-9.136-11.053-14.734s-4.185-11.675-4.471-17.87c-0.284-6.194 0.671-12.384 2.81-18.204 2.141-5.821 5.422-11.153 9.653-15.688 4.229-4.535 9.323-8.177 14.981-10.716 5.658-2.537 11.766-3.92 17.967-4.065 6.199-0.145 12.364 0.952 18.135 3.223 5.772 2.272 11.030 5.674 15.466 10.006l136.192 126.929 126.976-136.192c4.101-4.714 9.107-8.554 14.723-11.293s11.727-4.319 17.966-4.645c6.24-0.327 12.481 0.606 18.352 2.744 5.871 2.136 11.253 5.432 15.822 9.694 4.571 4.26 8.236 9.396 10.778 15.105 2.544 5.707 3.911 11.867 4.021 18.115 0.111 6.246-1.037 12.452-3.376 18.245-2.339 5.795-5.819 11.058-10.235 15.479l-126.93 136.192 136.192 126.976zM0 448c0-282.764 229.236-512 512-512s512 229.236 512 512c0 282.764-229.236 512-512 512s-512-229.236-512-512zM512 29.091c-55.012 0-109.485 10.835-160.31 31.887s-97.005 51.909-135.904 90.808c-38.899 38.901-69.756 85.080-90.808 135.904s-31.888 105.298-31.888 160.31c0 55.012 10.835 109.485 31.888 160.31s51.909 97.005 90.808 135.904c38.899 38.899 85.080 69.756 135.904 90.808s105.298 31.888 160.31 31.888c111.102 0 217.652-44.135 296.214-122.695 78.56-78.562 122.695-185.112 122.695-296.214s-44.134-217.652-122.695-296.214c-78.562-78.56-185.112-122.695-296.214-122.695z" />
<glyph unicode="&#xe906;" glyph-name="eye_hide" data-tags="eye_hide" d="M948.275 879.361c-9.601 9.483-22.621 14.81-36.198 14.81s-26.598-5.327-36.198-14.81l-800.102-790.566c-4.89-4.666-8.791-10.247-11.474-16.419s-4.096-12.809-4.155-19.524 1.237-13.378 3.811-19.593c2.574-6.217 6.376-11.865 11.184-16.614s10.523-8.505 16.816-11.049 13.034-3.824 19.833-3.765c6.798 0.058 13.517 1.454 19.763 4.104s11.896 6.505 16.619 11.336l800.052 790.566c9.6 9.485 14.991 22.35 14.991 35.763s-5.392 26.276-14.991 35.763h0.051zM159.13 271.351l131.072 129.493c-3.738 15.549-5.679 31.466-5.785 47.448 0 120.337 101.888 217.963 227.584 217.963 14.643 0 28.877-1.618 42.752-4.147l61.593 60.8c-34.489 5.645-69.387 8.521-104.346 8.598-335.872 0.051-512-244.316-512-283.215 0-21.397 54.118-105.719 159.13-176.89v-0.050zM865.024 625.079l-131.174-129.493c3.533-15.277 5.683-31.008 5.683-47.296 0-120.337-101.837-217.861-227.533-217.861-14.541 0-28.672 1.618-42.445 4.097l-61.645-60.852c32.87-5.261 67.379-8.6 104.090-8.6 335.872 0 512 244.47 512 283.216 0 21.447-54.067 105.719-158.976 176.788v0z" />
<glyph unicode="&#xe907;" glyph-name="eye_show" data-tags="eye_show" d="M512 733.982c-335.923 0-512-246.762-512-285.982 0-39.119 176.077-285.982 512-285.982 335.872 0 512 246.863 512 285.982 0 39.22-176.128 285.982-512 285.982zM512 228.049c-125.696 0-227.584 98.459-227.584 219.951s101.888 220.053 227.584 220.053c125.696 0 227.533-98.562 227.533-220.053s-101.836-219.951-227.533-219.951zM512 448c-20.838 22.828 33.946 110.001 0 110.001-62.874 0-113.817-49.281-113.817-110.001s50.943-110.001 113.817-110.001c62.823 0 113.817 49.281 113.817 110.001 0 27.934-96.102-19.355-113.817 0z" />
<glyph unicode="&#xe908;" glyph-name="home" data-tags="home" d="M51.189 396.795h51.201v-358.397c0-56.473 45.927-102.398 102.402-102.398h614.413c56.474 0 102.402 45.926 102.402 102.398v358.397h51.202c10.125 0.002 20.022 3.007 28.44 8.632s14.98 13.621 18.855 22.975c3.873 9.354 4.888 19.648 2.913 29.577-1.975 9.931-6.849 19.053-14.008 26.213l-460.81 460.796c-4.751 4.759-10.393 8.534-16.605 11.11s-12.87 3.902-19.594 3.902-13.384-1.326-19.594-3.902c-6.212-2.576-11.854-6.351-16.605-11.11l-460.81-460.796c-7.158-7.16-12.033-16.282-14.008-26.213s-0.961-20.223 2.914-29.577 10.435-17.349 18.853-22.975c8.418-5.625 18.315-8.631 28.44-8.632zM409.597 38.398v255.998h204.803v-255.998h-204.803zM511.999 836.394l307.207-307.197v-234.8l0.052-255.998h-102.454v255.998c0 56.473-45.927 102.398-102.403 102.398h-204.803c-56.476 0-102.403-45.926-102.403-102.398v-255.998h-102.402v490.798l307.207 307.197z" />
<glyph unicode="&#xe909;" glyph-name="nike" data-tags="nike" d="M863.676 802.047c17.556 16.204 41.257 25.323 65.977 25.387s48.474-8.934 66.127-25.047c17.652-16.113 27.784-38.048 28.206-61.061s-8.902-45.256-25.955-61.92l-500.79-582.841c-8.607-8.632-18.994-15.559-30.542-20.367s-24.018-7.398-36.667-7.617c-12.647-0.218-25.212 1.942-36.943 6.348s-22.388 10.971-31.332 19.299l-331.811 309.057c-9.244 8.020-16.658 17.692-21.801 28.437s-7.908 22.346-8.13 34.108c-0.223 11.762 2.101 23.445 6.833 34.353s11.775 20.817 20.71 29.135c8.934 8.318 19.576 14.876 31.292 19.281 11.715 4.406 24.264 6.571 36.897 6.362 12.633-0.207 25.092-2.783 36.633-7.57 11.542-4.788 21.928-11.691 30.542-20.298l262.689-244.467 435.683 516.848c0.778 0.905 1.616 1.763 2.51 2.57h-0.126z" />
<glyph unicode="&#xe90a;" glyph-name="setting" data-tags="setting" d="M781.443 141.387l33.381 32.695c154.434-4.974 156.807 0.366 163.595 16.018l42.428 101.854 3.153 9.655-3.449 8.447c-1.817 4.462-7.418 17.775-103.847 108.437v47.689c111.265 105.693 108.89 111.106 102.548 126.576l-42.242 102.914c-6.342 15.433-8.753 21.468-162.075 17.335l-33.379 34.011c3.446 50.101 1.694 100.417-5.229 150.165l-4.302 9.618-110.299 47.544c-16.246 7.314-21.957 9.948-126.1-101.889l-46.805 0.695c-107.221 112.861-112.304 110.813-128.362 104.413l-102.548-40.887c-16.059-6.4-21.733-8.668-15.503-162.269l-33.119-32.55c-154.36 4.974-156.734-0.439-163.447-16.018l-42.503-101.89-3.338-9.764 3.486-8.486c1.817-4.389 7.195-17.554 103.846-108.326v-47.543c-111.264-105.693-108.853-111.106-102.474-126.612l42.206-103.024c6.453-15.761 8.753-21.358 162.038-17.408l33.379-34.195c-3.46-50.022-1.757-100.261 5.081-149.944l4.302-9.692 111.005-47.835c16.132-6.656 21.733-9.034 125.58 102.402l46.805-0.585c107.369-113.007 112.858-110.813 128.546-104.56l102.327 40.778c16.169 6.328 21.808 8.558 15.316 162.234v0zM341.653 379.984c-12.941 33.352-15.607 69.73-7.659 104.568 7.947 34.84 26.151 66.589 52.328 91.264s59.163 41.178 94.816 47.436c35.653 6.258 72.387 1.994 105.592-12.259 33.204-14.251 61.401-37.855 81.052-67.851s29.88-65.045 29.405-100.752c-0.476-35.707-11.635-70.48-32.077-99.957-20.443-29.475-49.258-52.343-82.83-65.729-45.807-17.663-96.844-16.712-141.941 2.643-45.097 19.357-80.582 55.541-98.686 100.636v0z" />
<glyph unicode="&#xe90b;" glyph-name="sheet" data-tags="sheet" d="M874.079 942.256l83.779-84.454c23.173-23.36 23.173-61.094 0-84.454l-255.498-258.152v-579.196h-653.598v898.442h633.991l106.953 107.813c23.767 23.359 61.201 23.958 84.373 0zM537.773 434.336l319.075 321.044-84.373 85.053-318.482-321.642-42.187-126.979 125.967 42.525z" />
</font></defs></svg>